<?xml version="1.0" standalone="no"?>
<!DOCTYPE svg PUBLIC "-//W3C//DTD SVG 20010904//EN"
 "http://www.w3.org/TR/2001/REC-SVG-20010904/DTD/svg10.dtd">
<svg version="1.0" xmlns="http://www.w3.org/2000/svg"
 width="1024.000000pt" height="1024.000000pt" viewBox="0 0 1024.000000 1024.000000"
 preserveAspectRatio="xMidYMid meet">
<metadata>
Created by potrace 1.11, written by Peter Selinger 2001-2013
</metadata>
<g transform="translate(0.000000,1024.000000) scale(0.100000,-0.100000)"
fill="#000000" stroke="none">
<path d="M5085 10085 c-23 -8 -399 -127 -409 -130 -6 -1 -18 -5 -26 -8 -8 -4
-94 -32 -190 -63 -96 -31 -222 -72 -280 -91 -58 -19 -112 -36 -120 -38 -8 -2
-27 -8 -42 -14 -16 -6 -28 -8 -28 -5 0 4 -6 2 -12 -3 -12 -10 -113 -45 -183
-64 -16 -4 -61 -18 -100 -29 -38 -12 -83 -24 -100 -27 -16 -3 -71 -15 -120
-28 -50 -13 -102 -26 -115 -29 -14 -3 -34 -7 -45 -10 -55 -14 -145 -36 -166
-40 -13 -2 -31 -7 -39 -10 -8 -3 -26 -7 -40 -10 -14 -2 -45 -9 -70 -16 -25 -7
-53 -14 -62 -16 -10 -2 -26 -6 -35 -9 -10 -2 -49 -11 -88 -20 -38 -8 -113 -27
-165 -40 -52 -14 -104 -27 -115 -29 -37 -7 -120 -26 -155 -35 -47 -13 -122
-31 -140 -35 -8 -2 -26 -5 -40 -9 -14 -3 -59 -11 -100 -18 -41 -7 -82 -14 -90
-16 -8 -1 -28 -5 -45 -7 -16 -2 -57 -9 -90 -15 -73 -13 -93 -16 -270 -47 -77
-13 -153 -26 -170 -29 -48 -7 -108 -17 -130 -21 -11 -3 -35 -7 -54 -10 -18 -3
-43 -8 -55 -10 -11 -3 -39 -7 -61 -10 -22 -3 -71 -12 -110 -19 -38 -8 -88 -17
-110 -20 -179 -27 -180 -28 -181 -55 0 -14 3 -34 7 -46 4 -11 10 -34 12 -50 5
-27 22 -103 34 -149 3 -11 7 -31 9 -45 2 -14 13 -61 24 -105 11 -44 23 -93 26
-109 2 -16 6 -32 8 -35 2 -3 7 -22 10 -42 11 -70 23 -90 52 -85 26 5 168 61
279 111 17 7 53 21 80 31 28 10 56 22 62 27 7 5 13 6 13 2 0 -4 6 -3 12 2 7 5
40 20 73 32 33 13 69 27 80 31 11 5 38 14 60 21 22 6 45 15 50 19 6 4 24 11
40 15 36 10 29 8 85 25 25 7 50 17 55 20 11 8 125 45 260 85 50 15 97 29 105
33 8 3 22 7 30 8 8 2 87 24 175 49 88 25 178 50 200 55 22 5 128 29 235 54
107 25 206 48 220 51 45 9 184 36 210 40 14 2 36 7 50 10 24 5 159 27 245 40
22 3 47 7 55 10 8 2 38 7 65 9 28 3 61 7 75 10 48 8 140 19 262 30 26 2 50 6
55 9 4 2 58 8 118 11 61 4 130 9 155 12 160 19 438 28 815 28 327 -1 430 -4
680 -18 116 -7 330 -25 380 -32 17 -3 50 -7 75 -9 25 -2 63 -6 85 -9 22 -3 60
-8 85 -10 88 -11 145 -18 165 -23 11 -2 34 -6 50 -8 17 -2 44 -6 60 -9 17 -3
48 -8 70 -11 85 -12 121 -18 140 -22 11 -3 31 -7 45 -9 42 -7 71 -12 155 -29
44 -9 89 -17 100 -19 11 -1 27 -5 35 -9 8 -3 40 -11 70 -16 30 -6 66 -13 80
-16 14 -3 43 -10 65 -15 22 -5 78 -18 125 -30 47 -11 92 -22 101 -24 32 -8
104 -28 119 -34 8 -3 18 -4 22 -4 4 1 27 -4 50 -12 41 -13 127 -38 138 -41 64
-15 385 -118 398 -127 6 -6 12 -8 12 -5 0 6 97 -27 107 -36 3 -4 12 -7 20 -7
23 0 433 -155 563 -213 25 -11 50 -21 55 -23 16 -4 99 -44 117 -56 21 -15 52
7 40 29 -5 8 5 68 24 146 18 73 36 148 39 167 3 19 10 53 16 75 6 22 12 47 14
55 2 8 12 54 24 102 11 48 18 94 15 102 -5 12 -27 18 -124 31 -19 3 -46 7 -58
10 -13 3 -43 8 -65 11 -23 3 -57 9 -76 14 -19 5 -38 7 -43 4 -4 -3 -8 -2 -8 3
0 4 -10 8 -22 9 -13 1 -52 6 -88 12 -36 6 -80 14 -97 17 -18 3 -48 8 -65 11
-18 3 -44 7 -58 9 -14 3 -36 7 -50 9 -14 3 -52 10 -85 16 -33 5 -73 12 -90 15
-16 3 -43 7 -60 10 -16 2 -39 6 -50 8 -11 3 -52 10 -92 17 -87 14 -108 18
-108 20 0 1 -13 3 -30 5 -103 13 -175 26 -235 42 -30 8 -64 16 -75 18 -11 1
-38 8 -60 13 -42 12 -90 23 -115 28 -8 1 -77 19 -153 38 -76 20 -141 35 -145
34 -4 -1 -14 1 -22 5 -8 3 -28 9 -45 13 -40 10 -45 11 -47 13 -2 2 -12 4 -24
6 -11 3 -67 16 -123 30 -56 14 -115 28 -129 30 -45 7 -463 114 -527 135 -33
10 -188 60 -345 111 -157 51 -289 93 -295 94 -5 1 -17 4 -25 8 -8 3 -46 16
-85 28 -38 11 -101 32 -140 45 -38 14 -77 26 -85 29 -42 11 -280 87 -313 100
-21 9 -42 13 -47 10 -5 -3 -11 -1 -15 5 -6 10 -49 13 -70 5z"/>
<path d="M5620 9148 c6 -109 -4 -135 -43 -117 -33 15 -35 31 -4 27 29 -4 29
22 -1 33 -17 6 -27 4 -43 -12 -18 -18 -19 -23 -6 -42 8 -12 18 -20 22 -19 9 4
25 -18 25 -35 0 -9 -10 -11 -32 -6 -27 5 -30 4 -25 -11 4 -10 7 -20 7 -22 0
-8 52 -4 71 6 15 8 19 7 19 -4 0 -22 27 -9 34 17 6 21 7 21 22 -5 15 -28 44
-38 44 -15 0 6 -9 23 -20 37 -20 26 -26 50 -12 50 4 0 13 10 21 21 18 30 -7
47 -27 18 -22 -32 -28 -22 -22 41 6 65 5 70 -17 70 -10 0 -14 -10 -13 -32z"/>
<path d="M5212 9148 c-7 -7 -12 -18 -12 -25 0 -7 -4 -14 -10 -14 -11 -2 -25
-5 -37 -9 -5 -1 -12 -1 -18 0 -60 14 -85 11 -110 -16 -27 -29 -27 -29 -43 2
-10 18 -19 20 -94 18 -46 -1 -91 -2 -100 -3 -15 -1 -16 -9 -12 -50 3 -30 1
-52 -5 -56 -7 -4 -11 12 -11 47 l0 53 -59 3 c-54 2 -61 0 -80 -24 -47 -60 -7
-136 68 -127 20 2 55 4 78 3 39 -1 42 1 41 27 -2 74 2 91 21 96 30 7 48 -22
46 -70 -2 -31 1 -43 11 -43 10 0 14 14 14 49 0 50 12 69 42 68 20 0 25 -17 24
-74 -1 -26 4 -45 12 -48 15 -5 27 19 17 35 -13 20 13 9 27 -12 12 -18 24 -22
64 -21 86 2 83 1 82 41 -1 68 2 82 17 82 16 0 17 -6 19 -77 2 -67 21 -55 24
15 2 46 7 62 17 62 8 0 15 7 15 15 0 8 -7 15 -16 15 -9 0 -14 6 -11 13 8 22
-7 39 -21 25z m-92 -81 c9 -7 15 -22 14 -34 -3 -51 -55 -71 -87 -33 -21 25
-21 31 1 58 19 24 49 28 72 9z m-396 -25 c12 -24 12 -30 0 -47 -27 -37 -94
-22 -94 22 1 53 70 72 94 25z"/>
<path d="M4174 9071 c3 -43 9 -87 13 -97 6 -18 6 -18 -14 -1 -12 10 -29 20
-37 21 -25 4 -24 21 2 24 30 5 23 26 -10 30 -18 2 -31 -4 -42 -19 -12 -18 -16
-20 -21 -7 -3 8 -5 19 -3 24 1 5 -1 28 -5 51 -5 29 -11 41 -20 37 -10 -4 -12
-17 -7 -50 8 -49 4 -55 -29 -49 -32 6 -67 -13 -81 -44 l-13 -26 -7 25 c-4 15
-13 23 -21 21 -8 -2 -30 -3 -50 -2 -84 4 -121 -84 -58 -140 26 -23 35 -26 61
-19 16 5 36 14 43 20 7 6 19 8 28 4 12 -4 14 -1 10 15 -3 12 -1 21 6 21 6 0
11 -4 11 -8 0 -26 89 -34 117 -10 7 5 17 7 22 4 5 -4 12 -2 16 4 4 6 11 7 17
4 21 -13 53 -9 66 9 13 17 14 18 27 0 13 -17 14 -17 20 0 4 9 5 24 1 32 -9 23
7 18 28 -10 18 -25 46 -34 46 -16 0 5 -11 23 -25 40 -25 28 -25 31 -11 65 12
29 12 35 0 40 -7 3 -18 -3 -24 -14 -12 -22 -28 -27 -27 -7 2 69 -4 107 -19
107 -13 0 -15 -11 -10 -79z m-143 -85 c12 -15 14 -27 7 -47 -8 -22 -14 -26
-46 -25 -31 1 -38 5 -47 30 -8 24 -6 31 12 45 28 23 54 22 74 -3z m-167 -27
c30 -44 -19 -90 -70 -67 -26 12 -31 37 -14 69 15 26 64 25 84 -2z m253 9 c32
-12 46 -35 20 -35 -7 0 -24 -3 -38 -6 -22 -6 -25 -3 -24 23 0 34 -2 34 42 18z"/>
<path d="M6056 9129 c-3 -13 -8 -46 -11 -74 -2 -27 -8 -71 -13 -97 -10 -50 -8
-58 16 -58 10 0 13 8 10 25 -3 14 -1 25 3 25 5 0 9 -13 9 -30 0 -16 5 -30 10
-30 6 0 10 3 10 8 0 4 4 13 9 21 7 11 14 9 33 -13 16 -19 35 -29 58 -31 45 -3
54 -35 15 -53 -21 -10 -32 -9 -54 3 -27 13 -41 11 -41 -6 0 -9 64 -39 83 -39
32 0 68 43 73 90 7 55 11 60 23 27 13 -35 46 -50 92 -44 25 3 39 1 39 -6 0
-21 18 8 24 38 3 17 8 48 12 69 5 29 4 37 -5 32 -6 -4 -22 -2 -34 6 -39 24
-80 22 -111 -7 l-29 -27 7 32 c5 27 3 31 -10 26 -8 -3 -25 -1 -37 6 -34 18
-79 10 -105 -19 l-24 -26 2 24 c4 41 1 49 -16 42 -10 -4 -14 -13 -10 -29 3
-12 2 -26 -4 -29 -12 -8 -12 34 0 95 6 34 5 48 -5 59 -12 12 -15 11 -19 -10z
m189 -159 c3 -11 1 -29 -5 -40 -9 -17 -19 -20 -48 -18 -32 3 -38 7 -42 33 -7
41 22 67 62 53 15 -5 30 -18 33 -28z m155 -7 c11 -10 20 -25 20 -34 0 -20 -30
-46 -50 -44 -8 1 -22 3 -31 3 -39 4 -28 77 13 85 13 2 24 5 25 6 2 0 12 -7 23
-16z"/>
<path d="M5288 9087 c-55 -49 -21 -137 53 -137 25 0 46 7 58 19 21 21 33 18
24 -5 -3 -8 1 -14 11 -14 12 0 16 10 17 38 1 20 1 41 0 46 -3 15 21 36 40 36
11 0 19 7 19 15 0 23 -78 16 -86 -7 -3 -10 -2 -22 1 -28 3 -5 1 -10 -6 -10 -9
0 -9 -3 0 -14 13 -16 -2 -32 -19 -21 -6 3 -13 -1 -16 -9 -4 -10 -18 -16 -36
-16 l-31 0 39 35 c21 19 42 35 46 35 21 0 5 39 -19 48 -43 15 -67 12 -95 -11z
m66 -15 c7 -12 -31 -52 -49 -52 -22 0 -18 27 7 44 25 18 35 20 42 8z"/>
<path d="M6097 9093 c-12 -11 -8 -23 8 -23 8 0 15 7 15 15 0 16 -12 20 -23 8z"/>
<path d="M4318 9057 c-34 -32 -35 -78 -4 -112 23 -25 30 -27 68 -21 24 4 52 9
63 10 11 2 18 10 17 17 -4 14 -8 55 -11 99 -1 23 -5 25 -56 27 -45 2 -58 -1
-77 -20z m92 -29 c25 -22 25 -29 0 -56 -45 -48 -112 -1 -76 53 17 26 47 27 76
3z"/>
<path d="M5759 9067 c-45 -34 -47 -105 -5 -132 14 -10 42 -14 74 -13 29 1 52
2 53 3 0 0 2 32 5 70 5 63 3 71 -13 72 -10 1 -36 4 -58 7 -25 3 -46 1 -56 -7z
m79 -35 c46 -26 13 -89 -44 -83 -7 0 -19 12 -28 26 -15 23 -15 27 0 50 17 26
34 27 72 7z"/>
<path d="M6660 9028 c-11 -10 -21 -23 -21 -28 -1 -6 -2 -16 -3 -22 -1 -7 -7
-12 -14 -10 -19 4 -27 -29 -10 -39 13 -7 14 -16 3 -64 -11 -47 -11 -55 1 -55
17 0 23 12 28 58 2 18 14 43 26 54 l23 22 -7 -61 c-8 -74 9 -100 66 -105 49
-3 46 -9 64 90 5 26 9 30 20 21 15 -12 19 -41 7 -52 -11 -11 -14 -75 -4 -81 8
-5 20 16 26 44 11 51 19 70 31 70 16 0 19 26 4 35 -6 4 -8 15 -5 26 8 25 -20
26 -34 2 -6 -11 -20 -17 -39 -15 -28 2 -30 -1 -36 -40 -9 -61 -18 -72 -51 -64
-29 7 -29 11 -11 104 4 16 0 22 -13 22 -31 0 -50 22 -40 48 6 17 16 22 45 22
30 0 34 2 25 14 -19 23 -58 25 -81 4z"/>
<path d="M3675 8979 c-4 -6 -13 -8 -21 -5 -9 4 -14 -2 -15 -17 -1 -21 -1 -21
-9 3 -4 14 -8 20 -9 14 -1 -7 -21 -11 -50 -10 -56 1 -90 -24 -92 -66 0 -13 -3
-17 -6 -10 -7 18 -58 42 -90 42 -30 0 -50 -18 -71 -63 -10 -24 -10 -31 3 -43
21 -22 19 -25 -11 -14 -14 6 -23 6 -20 1 10 -16 -4 -37 -24 -38 -27 -2 -25 7
9 55 31 42 29 51 -11 65 -37 13 -109 -34 -100 -65 4 -15 -15 -8 -32 11 -13 14
-27 18 -54 15 -20 -3 -41 -9 -46 -14 -12 -12 -27 -13 -24 -2 1 4 -4 25 -10 48
-10 36 -15 41 -36 37 -15 -3 -23 -11 -21 -21 1 -10 8 -16 13 -15 6 2 16 -14
21 -35 21 -83 41 -164 41 -168 0 -3 4 -2 10 1 5 3 28 8 51 10 45 5 79 28 79
55 0 27 12 31 30 10 9 -10 33 -21 53 -23 29 -3 41 1 63 24 28 29 54 38 54 19
0 -5 16 -10 36 -10 29 0 44 7 69 35 31 32 34 33 48 17 18 -20 72 -22 105 -4
20 12 22 11 22 -11 0 -25 -26 -60 -48 -65 -7 -1 -21 2 -31 8 -15 7 -21 6 -26
-7 -3 -10 -1 -19 4 -21 22 -7 10 -28 -16 -28 -27 0 -93 -9 -143 -19 -14 -3
-51 -9 -82 -15 -32 -6 -70 -13 -85 -16 -68 -14 -180 -35 -195 -36 -10 -1 -18
-6 -18 -11 0 -4 -4 -6 -9 -3 -9 6 -152 -24 -161 -34 -3 -3 -16 -6 -30 -6 -29
-2 -21 0 -240 -55 -158 -39 -179 -44 -190 -48 -15 -5 -179 -54 -205 -61 -16
-4 -75 -22 -130 -39 -55 -17 -107 -33 -115 -36 -45 -12 -318 -107 -335 -116
-12 -5 -27 -11 -35 -13 -8 -2 -26 -7 -40 -13 -14 -6 -50 -19 -80 -31 -30 -11
-68 -26 -85 -33 -16 -7 -32 -13 -35 -13 -7 -2 -114 -45 -165 -66 -22 -9 -61
-26 -87 -36 -60 -24 -69 -44 -52 -114 14 -61 83 -373 90 -406 2 -12 18 -81 34
-154 16 -73 32 -142 34 -154 2 -11 14 -64 26 -116 18 -76 58 -257 125 -565 3
-11 7 -29 10 -40 15 -65 37 -163 40 -180 1 -11 10 -48 18 -82 8 -35 13 -63 10
-63 -3 0 0 -7 7 -15 7 -8 10 -15 6 -15 -3 0 -1 -12 5 -27 5 -15 12 -43 14 -63
3 -19 12 -64 20 -100 9 -36 18 -76 20 -90 2 -14 18 -86 35 -160 29 -126 64
-283 76 -340 3 -14 12 -54 20 -90 9 -36 18 -76 20 -90 3 -14 13 -61 24 -105
10 -44 21 -93 24 -110 3 -16 17 -79 31 -140 14 -60 32 -144 41 -185 8 -41 20
-93 26 -115 5 -22 12 -49 14 -60 14 -71 17 -90 14 -90 -2 0 2 -10 8 -21 6 -12
14 -41 17 -64 3 -23 7 -45 10 -49 2 -4 6 -18 8 -32 3 -13 15 -69 27 -124 12
-55 23 -107 25 -115 12 -54 16 -72 31 -135 9 -38 18 -79 20 -90 4 -26 31 -143
40 -172 6 -20 -5 -27 -112 -79 -66 -31 -121 -58 -122 -60 -2 -1 -4 -57 -4
-123 l-1 -120 -51 -22 c-27 -12 -55 -22 -61 -24 -5 -1 -19 -5 -30 -9 -11 -5
-32 -12 -47 -18 l-28 -10 0 -220 c0 -206 1 -220 17 -213 10 4 92 34 183 67 91
33 212 77 270 99 112 41 140 47 141 27 0 -7 2 -20 4 -28 2 -8 11 -46 19 -85 9
-38 19 -81 22 -95 11 -54 71 -324 93 -420 6 -25 17 -76 26 -115 8 -38 20 -88
25 -110 5 -22 16 -74 25 -115 15 -68 23 -106 31 -135 1 -5 5 -26 9 -45 3 -19
11 -53 17 -75 5 -22 12 -51 14 -65 3 -14 7 -31 10 -39 2 -8 7 -30 10 -50 3
-20 9 -49 14 -66 7 -26 16 -69 26 -125 6 -31 25 -116 35 -157 8 -28 16 -40 25
-36 7 2 62 -24 121 -60 59 -35 140 -81 178 -102 39 -21 76 -43 84 -49 8 -6 16
-10 17 -9 2 1 86 -38 186 -86 101 -48 228 -106 283 -128 99 -41 243 -96 258
-99 4 -1 8 -2 10 -3 9 -5 278 -96 342 -115 129 -39 289 -79 395 -98 30 -5 62
-12 70 -15 8 -3 24 -7 35 -9 11 -1 31 -5 45 -7 107 -21 187 -33 260 -41 64 -7
134 -16 185 -24 54 -9 213 -7 261 3 16 3 49 7 74 9 25 2 61 6 80 9 19 3 55 8
80 12 25 3 72 10 105 16 33 7 69 13 80 14 11 1 33 6 50 10 16 5 39 9 50 10 11
1 34 5 50 9 86 20 112 26 135 30 14 3 40 9 58 15 17 5 32 8 32 6 0 -2 19 2 41
11 23 8 51 16 63 19 44 9 63 14 121 35 50 17 177 60 195 65 3 1 12 4 20 8 8 3
35 12 60 20 48 16 235 87 285 108 17 7 32 13 35 14 17 6 155 68 258 116 45 21
84 38 86 36 2 -1 12 5 22 14 11 8 48 30 84 48 86 43 158 83 283 157 l103 62
17 88 c10 49 29 139 43 199 14 61 27 121 29 135 7 38 11 51 24 97 6 23 11 45
10 50 -1 4 1 15 4 23 3 8 27 110 53 225 54 245 62 280 99 440 28 126 43 193
51 235 2 14 7 32 11 40 3 8 7 26 9 40 2 14 6 32 7 40 2 8 10 44 18 79 7 35 19
66 26 68 12 5 164 -42 218 -67 11 -5 40 -16 65 -24 25 -8 83 -29 130 -47 47
-17 109 -39 138 -49 l52 -19 0 32 c1 63 1 253 1 328 -1 87 15 71 -131 125 -41
15 -78 31 -81 36 -3 5 -5 61 -5 124 l1 116 -123 59 c-88 42 -122 64 -119 74 3
7 9 31 12 52 4 21 11 52 15 68 5 17 11 44 14 60 3 17 7 39 10 50 3 11 14 63
26 115 12 52 24 104 26 115 3 11 8 34 11 50 3 17 8 37 12 45 4 8 7 22 6 30 -1
8 2 25 7 38 4 13 10 37 14 55 3 18 19 88 35 157 17 69 32 137 34 152 2 15 6
31 9 36 3 5 8 24 11 43 3 19 8 41 10 49 2 8 7 31 10 50 3 19 10 51 15 70 9 30
36 149 66 280 4 19 8 42 9 50 0 8 4 21 8 28 5 6 6 12 3 12 -3 0 1 21 9 48 8
26 16 58 18 72 8 45 79 365 84 380 3 8 7 22 8 30 1 8 10 45 19 83 8 37 18 79
21 95 2 15 9 42 14 60 5 17 8 32 6 32 -3 0 0 11 5 26 6 14 12 38 15 54 3 17
12 58 20 92 8 35 16 74 19 88 2 14 7 32 10 40 3 8 7 29 10 45 3 17 15 71 26
120 12 50 23 101 26 115 3 21 10 48 19 80 1 3 5 21 9 40 12 57 58 257 92 405
8 33 17 74 20 90 3 17 12 59 20 95 9 36 17 74 20 85 2 11 12 56 23 100 10 44
28 123 40 175 47 214 82 366 87 383 4 13 -6 23 -48 41 -47 21 -83 36 -98 41
-16 5 -130 52 -175 70 -98 42 -495 184 -528 189 -7 1 -16 4 -22 7 -11 7 -110
40 -128 43 -13 2 -82 24 -107 33 -8 3 -19 7 -25 9 -5 1 -84 23 -175 49 -91 26
-174 49 -185 51 -34 7 -58 13 -115 29 -30 9 -66 18 -80 20 -14 2 -72 15 -130
29 -115 27 -136 32 -224 47 -32 5 -67 14 -76 19 -10 5 -20 7 -23 3 -3 -3 -14
-2 -24 2 -10 5 -31 10 -48 12 -16 2 -64 10 -105 18 -41 8 -95 17 -120 21 -25
4 -54 8 -65 10 -19 3 -196 28 -275 39 -19 3 -57 7 -85 10 -27 3 -84 10 -125
15 -78 10 -145 17 -265 25 -38 3 -97 8 -130 11 -183 16 -486 26 -795 26 -255
-1 -354 -4 -565 -18 -44 -4 -105 -7 -135 -9 -115 -7 -340 -27 -445 -40 -114
-14 -131 -16 -155 -20 -14 -1 -54 -6 -90 -10 -36 -4 -68 -9 -72 -12 -17 -10
-7 10 14 26 16 13 22 30 22 59 1 22 5 44 10 49 5 5 6 3 2 -4 -5 -8 -1 -13 9
-13 14 0 16 7 12 38 -2 20 -6 42 -7 47 -6 27 2 45 20 45 11 0 20 7 20 15 0 17
-35 20 -45 4z m-71 -82 c8 -23 6 -31 -11 -49 -27 -26 -64 -19 -83 17 -12 23
-12 28 0 35 8 6 11 10 5 10 -5 0 -3 5 5 10 8 6 28 9 45 8 22 -2 32 -10 39 -31z
m50 -2 c-4 -8 -8 -15 -10 -15 -2 0 -4 7 -4 15 0 8 4 15 10 15 5 0 7 -7 4 -15z
m-217 -21 c8 -11 9 -21 3 -29 -5 -7 -8 -14 -5 -17 3 -2 -6 -11 -20 -18 -20
-11 -28 -10 -50 4 -28 19 -32 42 -10 66 19 21 65 18 82 -6z m-187 -11 c0 -10
-44 -73 -51 -73 -4 0 -10 8 -14 17 -4 12 2 25 20 40 26 23 45 29 45 16z m-133
-58 c35 -35 -23 -99 -68 -75 -10 6 -19 15 -19 20 0 4 -3 15 -6 23 -14 37 62
63 93 32z"/>
<path d="M7200 8875 c-7 -25 -16 -47 -20 -50 -3 -2 -20 3 -36 11 -51 27 -98
27 -128 -1 -23 -21 -30 -23 -46 -12 -11 6 -20 17 -20 24 0 17 17 17 23 1 3 -9
7 -7 12 6 9 21 -8 36 -42 36 -40 0 -43 -73 -3 -83 34 -9 13 -39 -21 -32 -34 8
-38 -7 -8 -28 20 -15 59 -12 70 5 3 6 16 -2 27 -17 16 -21 34 -28 77 -34 43
-6 55 -5 55 6 0 7 5 13 11 13 5 0 8 -4 5 -9 -8 -13 4 -42 15 -36 7 5 27 62 35
101 1 6 9 37 18 68 16 54 15 76 -3 76 -5 0 -14 -20 -21 -45z m-85 -66 c22 -24
16 -50 -17 -69 -34 -19 -62 -5 -66 33 -6 50 50 74 83 36z m62 -21 c-3 -8 -6
-5 -6 6 -1 11 2 17 5 13 3 -3 4 -12 1 -19z m-7 -38 c0 -5 -5 -10 -11 -10 -5 0
-7 5 -4 10 3 6 8 10 11 10 2 0 4 -4 4 -10z"/>
</g>
</svg>
